\relax 
\babel@aux{english}{}
\@writefile{toc}{\contentsline {section}{\numberline {1}Introduction}{1}}
\@writefile{toc}{\contentsline {section}{\numberline {2}State of the Art}{2}}
\@writefile{toc}{\contentsline {section}{\numberline {3}Methodology}{3}}
\@writefile{toc}{\contentsline {subsection}{\numberline {3.1}Corpus}{3}}
\@writefile{lof}{\contentsline {figure}{\numberline {1}{\ignorespaces Proportion of text in each language in the training set}}{3}}
\@writefile{toc}{\contentsline {subsection}{\numberline {3.2}Models}{4}}
\@writefile{toc}{\contentsline {subsubsection}{\numberline {3.2.1}Data representation}{5}}
\@writefile{lof}{\contentsline {figure}{\numberline {2}{\ignorespaces Part of the English most frequent words vector}}{5}}
\@writefile{toc}{\contentsline {subsubsection}{\numberline {3.2.2}Classification methods}{6}}
\@writefile{toc}{\contentsline {section}{\numberline {4}Evaluation}{8}}
\@writefile{toc}{\contentsline {subsection}{\numberline {4.1}KLD}{8}}
\@writefile{toc}{\contentsline {subsection}{\numberline {4.2}Distance}{9}}
\@writefile{lof}{\contentsline {figure}{\numberline {3}{\ignorespaces Common words among the 50 most frequent}}{10}}
\@writefile{lof}{\contentsline {figure}{\numberline {4}{\ignorespaces Proportion of words that appear in Spanish and in Portuguese}}{11}}
\@writefile{lof}{\contentsline {figure}{\numberline {5}{\ignorespaces Accuracy of the distance model with 100 words samples}}{11}}
\@writefile{lof}{\contentsline {figure}{\numberline {6}{\ignorespaces Accuracy of the distance model depending on sample length}}{12}}
\@writefile{lof}{\contentsline {figure}{\numberline {7}{\ignorespaces Accuracy of the distance model depending on sample length}}{12}}
\@writefile{lof}{\contentsline {figure}{\numberline {8}{\ignorespaces Accuracy of the distance model depending on sample length}}{13}}
\@writefile{toc}{\contentsline {section}{\numberline {5}Conclusion}{14}}
\@writefile{toc}{\contentsline {section}{\numberline {6}References}{15}}
\@writefile{toc}{\contentsline {section}{\numberline {7}Annex}{16}}
