Classification with 23045 samples

Confusion matrix: (pred\real)
	EN	PT	SP	
EN	8385	7	0	
PT	16	7414	96	
SP	1	75	7051	

For label EN
Precision: 0.9991658722592945
Accuracy: 0.9989585593404209
Recall: 0.9979766722208998
F1: 0.998570918185066

For label PT
Precision: 0.9851182567100718
Accuracy: 0.9915816880017357
Recall: 0.9890608324439701
F1: 0.9870856077752631

For label SP
Precision: 0.9893363266451523
Accuracy: 0.9925363419396832
Recall: 0.9865677906814048
F1: 0.9879501190976601

On average: 
Precision: 0.9912068185381729
Accuracy: 0.9943588630939466
Recall: 0.9912017651154249
F1: 2.9736066450579894
